name="BookmarkProvider.apk" info_1="609343c51bbce9849561f1d6d36983e7" info_2="7d822fa38ee4143c247579c7cd1775f8" location="app/BookmarkProvider/BookmarkProvider.apk"
name="Browser.apk" info_1="c8d9b86383d6b0d811b2a9ef449814cd" info_2="7f082f8191ddd8170f670fcd8bbfbfa0" location="app/Browser/Browser.apk"
name="FinShellWallet.apk" info_1="0c82f761eb397663eae0719e33f91252" info_2="9085ef397019f2d114013a4866013ab3" location="app/FinShellWallet/FinShellWallet.apk"
name="Gamecenter.apk" info_1="7efcaa228a1cc8cfd2addabc5f902f12" info_2="6bca73177b5dbddff77ad7c64f350939" location="del-app/Gamecenter/Gamecenter.apk"
name="GlobalSearch.apk" info_1="95273ec6e42f73a6e1e9eb774e8c1f4d" info_2="71b02bf2c43ac3dd9ae741efeab58daf" location="app/GlobalSearch/GlobalSearch.apk"
name="GmsConfigOverlayCommon.apk" info_1="26c67d10fb853836f354b72930b0cc63" info_2="204559577e3e7ff2b23a70828a5375ac" location="overlay/GmsConfigOverlayCommon/GmsConfigOverlayCommon.apk"
name="GmsConfigOverlayComms.apk" info_1="26c67d10fb853836f354b72930b0cc63" info_2="204559577e3e7ff2b23a70828a5375ac" location="overlay/GmsConfigOverlayComms/GmsConfigOverlayComms.apk"
name="GmsConfigOverlayGSA.apk" info_1="26c67d10fb853836f354b72930b0cc63" info_2="204559577e3e7ff2b23a70828a5375ac" location="overlay/GmsConfigOverlayGSA/GmsConfigOverlayGSA.apk"
name="GmsOverlay.apk" info_1="26c67d10fb853836f354b72930b0cc63" info_2="204559577e3e7ff2b23a70828a5375ac" location="overlay/GmsOverlay/GmsOverlay.apk"
name="HeyTapSpeechAssist.apk" info_1="480736c9a67e4386e4ffbdf71555700b" info_2="2072444af5fbb3fad9cf4c7d88cc147b" location="priv-app/HeyTapSpeechAssist/HeyTapSpeechAssist.apk"
name="Instant.apk" info_1="482148f6ce1df170984f233431262f72" info_2="282c9282cb51cc5da8bb2509f2c41d85" location="app/Instant/Instant.apk"
name="KeKeMarket.apk" info_1="c3833dbad48a0fd077a60142e151e720" info_2="d204c659939c729c26bedd6131df6339" location="priv-app/KeKeMarket/KeKeMarket.apk"
name="KeKePay.apk" info_1="7efcaa228a1cc8cfd2addabc5f902f12" info_2="6bca73177b5dbddff77ad7c64f350939" location="app/KeKePay/KeKePay.apk"
name="KeKeThemeSpace.apk" info_1="c3833dbad48a0fd077a60142e151e720" info_2="d204c659939c729c26bedd6131df6339" location="priv-app/KeKeThemeSpace/KeKeThemeSpace.apk"
name="OPPOStore.apk" info_1="596a23d29ac50bf93a5f7f6c9347abe2" info_2="6bca73177b5dbddff77ad7c64f350939" location="del-app/OPPOStore/OPPOStore.apk"
name="OpenID.apk" info_1="737bfa449bcb3eda3736a87d00cca982" info_2="65b55f10bf2d77dc8a5aa58d8d8a18d0" location="app/OpenID/OpenID.apk"
name="QuickGame.apk" info_1="7efcaa228a1cc8cfd2addabc5f902f12" info_2="6bca73177b5dbddff77ad7c64f350939" location="del-app/QuickGame/QuickGame.apk"
name="SmartHome.apk" info_1="b83cfbd0a1210681fb87512306256249" info_2="a779a610ce579e8f6ed72b83471ec6b0" location="del-app/SmartHome/SmartHome.apk"
